{
    "annotation": {
        "folder": "NSW Drivers Licence",
        "filename": "Flood.png",
        "path": "/home/mihai/Documents/ColoredDataset/NSW Drivers Licence/Flood.png",
        "source": {
            "database": "Unknown"
        },
        "size": {
            "width": "370",
            "height": "246",
            "depth": "3"
        },
        "segmented": "0",
        "object": [
            {
                "name": "name",
                "pose": "Unspecified",
                "truncated": "0",
                "difficult": "0",
                "bndbox": {
                    "xmin": "4",
                    "ymin": "44",
                    "xmax": "139",
                    "ymax": "60"
                }
            },
            {
                "name": "card number",
                "pose": "Unspecified",
                "truncated": "0",
                "difficult": "0",
                "bndbox": {
                    "xmin": "277",
                    "ymin": "60",
                    "xmax": "366",
                    "ymax": "74"
                }
            },
            {
                "name": "address",
                "pose": "Unspecified",
                "truncated": "0",
                "difficult": "0",
                "bndbox": {
                    "xmin": "2",
                    "ymin": "90",
                    "xmax": "141",
                    "ymax": "119"
                }
            },
            {
                "name": "licence no",
                "pose": "Unspecified",
                "truncated": "0",
                "difficult": "0",
                "bndbox": {
                    "xmin": "2",
                    "ymin": "143",
                    "xmax": "57",
                    "ymax": "156"
                }
            },
            {
                "name": "date of birth",
                "pose": "Unspecified",
                "truncated": "0",
                "difficult": "0",
                "bndbox": {
                    "xmin": "164",
                    "ymin": "220",
                    "xmax": "248",
                    "ymax": "235"
                }
            },
            {
                "name": "expiry date",
                "pose": "Unspecified",
                "truncated": "0",
                "difficult": "0",
                "bndbox": {
                    "xmin": "285",
                    "ymin": "222",
                    "xmax": "363",
                    "ymax": "235"
                }
            }
        ]
    }
}