{
    "annotation": {
        "folder": "cropped_images",
        "filename": "IMG_4594.JPG",
        "path": "/home/mihai/Desktop/bitbucket_repo/TaggingService/MapSearchService/mapzoneservice/data/cropped_images/IMG_4594.JPG",
        "source": {
            "database": "Unknown"
        },
        "size": {
            "width": "2708",
            "height": "1690",
            "depth": "3"
        },
        "segmented": "0",
        "object": [
            {
                "name": "name",
                "pose": "Unspecified",
                "truncated": "0",
                "difficult": "0",
                "bndbox": {
                    "xmin": "8",
                    "ymin": "286",
                    "xmax": "700",
                    "ymax": "403"
                }
            },
            {
                "name": "address",
                "pose": "Unspecified",
                "truncated": "1",
                "difficult": "0",
                "bndbox": {
                    "xmin": "1",
                    "ymin": "610",
                    "xmax": "1042",
                    "ymax": "829"
                }
            },
            {
                "name": "card number",
                "pose": "Unspecified",
                "truncated": "0",
                "difficult": "0",
                "bndbox": {
                    "xmin": "2085",
                    "ymin": "377",
                    "xmax": "2705",
                    "ymax": "489"
                }
            },
            {
                "name": "licence no",
                "pose": "Unspecified",
                "truncated": "1",
                "difficult": "0",
                "bndbox": {
                    "xmin": "1",
                    "ymin": "1034",
                    "xmax": "362",
                    "ymax": "1129"
                }
            },
            {
                "name": "date of birth",
                "pose": "Unspecified",
                "truncated": "0",
                "difficult": "0",
                "bndbox": {
                    "xmin": "1257",
                    "ymin": "1600",
                    "xmax": "1828",
                    "ymax": "1689"
                }
            },
            {
                "name": "expiry date",
                "pose": "Unspecified",
                "truncated": "1",
                "difficult": "0",
                "bndbox": {
                    "xmin": "2142",
                    "ymin": "1597",
                    "xmax": "2708",
                    "ymax": "1684"
                }
            }
        ]
    }
}